<?xml version="1.0" encoding="UTF-8" standalone="no"?>
<!-- Created with Fritzing (http://www.fritzing.org/) -->

<svg
   xmlns:dc="http://purl.org/dc/elements/1.1/"
   xmlns:cc="http://creativecommons.org/ns#"
   xmlns:rdf="http://www.w3.org/1999/02/22-rdf-syntax-ns#"
   xmlns:svg="http://www.w3.org/2000/svg"
   xmlns="http://www.w3.org/2000/svg"
   xmlns:sodipodi="http://sodipodi.sourceforge.net/DTD/sodipodi-0.dtd"
   xmlns:inkscape="http://www.inkscape.org/namespaces/inkscape"
   width="1.6in"
   x="0in"
   version="1.2"
   y="0in"
   height="0.6in"
   viewBox="0 0 115.2 43.2"
   id="svg8280"
   sodipodi:docname="L298N_breadboard.svg"
   inkscape:version="0.92.2 (5c3e80d, 2017-08-06)">
  <title
     id="title8795">L286N driver</title>
  <metadata
     id="metadata8286">
    <rdf:RDF>
      <cc:Work
         rdf:about="">
        <dc:format>image/svg+xml</dc:format>
        <dc:type
           rdf:resource="http://purl.org/dc/dcmitype/StillImage" />
        <dc:title>L286N driver</dc:title>
        <dc:date>08/02/2018</dc:date>
        <dc:creator>
          <cc:Agent>
            <dc:title>Alan Cândido</dc:title>
          </cc:Agent>
        </dc:creator>
        <dc:rights>
          <cc:Agent>
            <dc:title></dc:title>
          </cc:Agent>
        </dc:rights>
        <dc:subject>
          <rdf:Bag>
            <rdf:li>L286N dirver motor arduino</rdf:li>
          </rdf:Bag>
        </dc:subject>
        <cc:license
           rdf:resource="http://creativecommons.org/licenses/by-sa/4.0/" />
      </cc:Work>
      <cc:License
         rdf:about="http://creativecommons.org/licenses/by-sa/4.0/">
        <cc:permits
           rdf:resource="http://creativecommons.org/ns#Reproduction" />
        <cc:permits
           rdf:resource="http://creativecommons.org/ns#Distribution" />
        <cc:requires
           rdf:resource="http://creativecommons.org/ns#Notice" />
        <cc:requires
           rdf:resource="http://creativecommons.org/ns#Attribution" />
        <cc:permits
           rdf:resource="http://creativecommons.org/ns#DerivativeWorks" />
        <cc:requires
           rdf:resource="http://creativecommons.org/ns#ShareAlike" />
      </cc:License>
    </rdf:RDF>
  </metadata>
  <defs
     id="defs8284" />
  <sodipodi:namedview
     pagecolor="#ffffff"
     bordercolor="#666666"
     borderopacity="1"
     objecttolerance="10"
     gridtolerance="10"
     guidetolerance="10"
     inkscape:pageopacity="0"
     inkscape:pageshadow="2"
     inkscape:window-width="1366"
     inkscape:window-height="715"
     id="namedview8282"
     showgrid="false"
     inkscape:zoom="16.315016"
     inkscape:cx="30.697972"
     inkscape:cy="-63.026377"
     inkscape:window-x="-8"
     inkscape:window-y="-8"
     inkscape:window-maximized="1"
     inkscape:current-layer="svg8280" />
  <desc
     id="desc7585">Fritzing breadboard generated by brd2svg</desc>
  <rect
     style="fill:#1f7a34;fill-opacity:1;stroke:#f90000;stroke-width:0.2010242;stroke-miterlimit:4;stroke-dasharray:none;stroke-dashoffset:0;stroke-opacity:1"
     id="board"
     width="121.68873"
     height="121.68874"
     x="-132.03992"
     y="-29.143167" />
  <path
     d="m 0,0 v 19.44 a 2.16,2.16 0 0 1 0,4.32 V 43.2 H 115.2 V 0 Z"
     id="path7587"
     inkscape:connector-curvature="0"
     style="fill:#1f7a34;stroke:none;stroke-width:0" />
  <g
     transform="translate(-77.570716,74.239545)"
     id="g7674"
     style="stroke-width:0">
    <g
       transform="rotate(-90)"
       id="g7672"
       style="stroke-width:0">
      <text
         x="0"
         y="0"
         font-size="3.24"
         id="text7670"
         style="font-size:3.24000001px;font-family:OCRA;text-anchor:start;fill:#ffffff;stroke:none;stroke-width:0">1</text>
    </g>
  </g>
  <g
     transform="translate(4.572,5.3244)"
     id="g7680"
     style="stroke-width:0">
    <g
       transform="rotate(-90)"
       id="g7678"
       style="stroke-width:0">
      <text
         x="0"
         y="0"
         font-size="3.24"
         id="text7676"
         style="font-size:3.24000001px;font-family:OCRA;text-anchor:end;fill:#ffffff;stroke:none;stroke-width:0">32</text>
    </g>
  </g>
  <g
     transform="translate(-70.922355,81.043093)"
     id="g7686"
     style="stroke-width:0">
    <g
       transform="rotate(-90)"
       id="g7684"
       style="stroke-width:0">
      <text
         x="0"
         y="0"
         font-size="3.24"
         id="text7682"
         style="font-size:3.24000001px;font-family:OCRA;text-anchor:start;fill:#ffffff;stroke:none;stroke-width:0">2</text>
    </g>
  </g>
  <g
     transform="translate(11.772,5.3244)"
     id="g7692"
     style="stroke-width:0">
    <g
       transform="rotate(-90)"
       id="g7690"
       style="stroke-width:0">
      <text
         x="0"
         y="0"
         font-size="3.24"
         id="text7688"
         style="font-size:3.24000001px;font-family:OCRA;text-anchor:end;fill:#ffffff;stroke:none;stroke-width:0">31</text>
    </g>
  </g>
  <g
     transform="translate(-63.722355,81.043093)"
     id="g7698"
     style="stroke-width:0">
    <g
       transform="rotate(-90)"
       id="g7696"
       style="stroke-width:0">
      <text
         x="0"
         y="0"
         font-size="3.24"
         id="text7694"
         style="font-size:3.24000001px;font-family:OCRA;text-anchor:start;fill:#ffffff;stroke:none;stroke-width:0">3</text>
    </g>
  </g>
  <g
     transform="translate(18.972,5.3244)"
     id="g7704"
     style="stroke-width:0">
    <g
       transform="rotate(-90)"
       id="g7702"
       style="stroke-width:0">
      <text
         x="0"
         y="0"
         font-size="3.24"
         id="text7700"
         style="font-size:3.24000001px;font-family:OCRA;text-anchor:end;fill:#ffffff;stroke:none;stroke-width:0">30</text>
    </g>
  </g>
  <g
     transform="translate(-56.522355,81.043093)"
     id="g7710"
     style="stroke-width:0">
    <g
       transform="rotate(-90)"
       id="g7708"
       style="stroke-width:0">
      <text
         x="0"
         y="0"
         font-size="3.24"
         id="text7706"
         style="font-size:3.24000001px;font-family:OCRA;text-anchor:start;fill:#ffffff;stroke:none;stroke-width:0">4</text>
    </g>
  </g>
  <g
     transform="translate(26.172,5.3244)"
     id="g7716"
     style="stroke-width:0">
    <g
       transform="rotate(-90)"
       id="g7714"
       style="stroke-width:0">
      <text
         x="0"
         y="0"
         font-size="3.24"
         id="text7712"
         style="font-size:3.24000001px;font-family:OCRA;text-anchor:end;fill:#ffffff;stroke:none;stroke-width:0">29</text>
    </g>
  </g>
  <g
     transform="translate(-49.322355,81.043093)"
     id="g7722"
     style="stroke-width:0">
    <g
       transform="rotate(-90)"
       id="g7720"
       style="stroke-width:0">
      <text
         x="0"
         y="0"
         font-size="3.24"
         id="text7718"
         style="font-size:3.24000001px;font-family:OCRA;text-anchor:start;fill:#ffffff;stroke:none;stroke-width:0">5</text>
    </g>
  </g>
  <g
     transform="translate(33.372,5.3244)"
     id="g7728"
     style="stroke-width:0">
    <g
       transform="rotate(-90)"
       id="g7726"
       style="stroke-width:0">
      <text
         x="0"
         y="0"
         font-size="3.24"
         id="text7724"
         style="font-size:3.24000001px;font-family:OCRA;text-anchor:end;fill:#ffffff;stroke:none;stroke-width:0">28</text>
    </g>
  </g>
  <g
     transform="translate(-41.938475,75.526703)"
     id="g7734"
     style="stroke-width:0">
    <g
       transform="rotate(-90)"
       id="g7732"
       style="stroke-width:0">
      <text
         x="0"
         y="0"
         font-size="3.24"
         id="text7730"
         style="font-size:3.24000001px;font-family:OCRA;text-anchor:start;fill:#ffffff;stroke:none;stroke-width:0">6</text>
    </g>
  </g>
  <g
     transform="translate(40.572,5.3244)"
     id="g7740"
     style="stroke-width:0">
    <g
       transform="rotate(-90)"
       id="g7738"
       style="stroke-width:0">
      <text
         x="0"
         y="0"
         font-size="3.24"
         id="text7736"
         style="font-size:3.24000001px;font-family:OCRA;text-anchor:end;fill:#ffffff;stroke:none;stroke-width:0">27</text>
    </g>
  </g>
  <g
     transform="translate(47.772,37.8756)"
     id="g7746"
     style="stroke-width:0">
    <g
       transform="rotate(-90)"
       id="g7744"
       style="stroke-width:0">
      <text
         x="0"
         y="0"
         font-size="3.24"
         id="text7742"
         style="font-size:3.24000001px;font-family:OCRA;text-anchor:start;fill:#ffffff;stroke:none;stroke-width:0">7</text>
    </g>
  </g>
  <g
     transform="translate(47.772,5.3244)"
     id="g7752"
     style="stroke-width:0">
    <g
       transform="rotate(-90)"
       id="g7750"
       style="stroke-width:0">
      <text
         x="0"
         y="0"
         font-size="3.24"
         id="text7748"
         style="font-size:3.24000001px;font-family:OCRA;text-anchor:end;fill:#ffffff;stroke:none;stroke-width:0">26</text>
    </g>
  </g>
  <g
     transform="translate(54.972,37.8756)"
     id="g7758"
     style="stroke-width:0">
    <g
       transform="rotate(-90)"
       id="g7756"
       style="stroke-width:0">
      <text
         x="0"
         y="0"
         font-size="3.24"
         id="text7754"
         style="font-size:3.24000001px;font-family:OCRA;text-anchor:start;fill:#ffffff;stroke:none;stroke-width:0">8</text>
    </g>
  </g>
  <g
     transform="translate(54.972,5.3244)"
     id="g7764"
     style="stroke-width:0">
    <g
       transform="rotate(-90)"
       id="g7762"
       style="stroke-width:0">
      <text
         x="0"
         y="0"
         font-size="3.24"
         id="text7760"
         style="font-size:3.24000001px;font-family:OCRA;text-anchor:end;fill:#ffffff;stroke:none;stroke-width:0">25</text>
    </g>
  </g>
  <g
     transform="translate(62.172,37.8756)"
     id="g7770"
     style="stroke-width:0">
    <g
       transform="rotate(-90)"
       id="g7768"
       style="stroke-width:0">
      <text
         x="0"
         y="0"
         font-size="3.24"
         id="text7766"
         style="font-size:3.24000001px;font-family:OCRA;text-anchor:start;fill:#ffffff;stroke:none;stroke-width:0">9</text>
    </g>
  </g>
  <g
     transform="translate(62.172,5.3244)"
     id="g7776"
     style="stroke-width:0">
    <g
       transform="rotate(-90)"
       id="g7774"
       style="stroke-width:0">
      <text
         x="0"
         y="0"
         font-size="3.24"
         id="text7772"
         style="font-size:3.24000001px;font-family:OCRA;text-anchor:end;fill:#ffffff;stroke:none;stroke-width:0">24</text>
    </g>
  </g>
  <g
     transform="translate(69.372,37.8756)"
     id="g7782"
     style="stroke-width:0">
    <g
       transform="rotate(-90)"
       id="g7780"
       style="stroke-width:0">
      <text
         x="0"
         y="0"
         font-size="3.24"
         id="text7778"
         style="font-size:3.24000001px;font-family:OCRA;text-anchor:start;fill:#ffffff;stroke:none;stroke-width:0">10</text>
    </g>
  </g>
  <g
     transform="translate(69.372,5.3244)"
     id="g7788"
     style="stroke-width:0">
    <g
       transform="rotate(-90)"
       id="g7786"
       style="stroke-width:0">
      <text
         x="0"
         y="0"
         font-size="3.24"
         id="text7784"
         style="font-size:3.24000001px;font-family:OCRA;text-anchor:end;fill:#ffffff;stroke:none;stroke-width:0">23</text>
    </g>
  </g>
  <g
     transform="translate(76.572,37.8756)"
     id="g7794"
     style="stroke-width:0">
    <g
       transform="rotate(-90)"
       id="g7792"
       style="stroke-width:0">
      <text
         x="0"
         y="0"
         font-size="3.24"
         id="text7790"
         style="font-size:3.24000001px;font-family:OCRA;text-anchor:start;fill:#ffffff;stroke:none;stroke-width:0">11</text>
    </g>
  </g>
  <g
     transform="translate(76.572,5.3244)"
     id="g7800"
     style="stroke-width:0">
    <g
       transform="rotate(-90)"
       id="g7798"
       style="stroke-width:0">
      <text
         x="0"
         y="0"
         font-size="3.24"
         id="text7796"
         style="font-size:3.24000001px;font-family:OCRA;text-anchor:end;fill:#ffffff;stroke:none;stroke-width:0">22</text>
    </g>
  </g>
  <g
     transform="translate(83.772,37.8756)"
     id="g7806"
     style="stroke-width:0">
    <g
       transform="rotate(-90)"
       id="g7804"
       style="stroke-width:0">
      <text
         x="0"
         y="0"
         font-size="3.24"
         id="text7802"
         style="font-size:3.24000001px;font-family:OCRA;text-anchor:start;fill:#ffffff;stroke:none;stroke-width:0">12</text>
    </g>
  </g>
  <g
     transform="translate(83.772,5.3244)"
     id="g7812"
     style="stroke-width:0">
    <g
       transform="rotate(-90)"
       id="g7810"
       style="stroke-width:0">
      <text
         x="0"
         y="0"
         font-size="3.24"
         id="text7808"
         style="font-size:3.24000001px;font-family:OCRA;text-anchor:end;fill:#ffffff;stroke:none;stroke-width:0">21</text>
    </g>
  </g>
  <g
     transform="translate(90.972,37.8756)"
     id="g7818"
     style="stroke-width:0">
    <g
       transform="rotate(-90)"
       id="g7816"
       style="stroke-width:0">
      <text
         x="0"
         y="0"
         font-size="3.24"
         id="text7814"
         style="font-size:3.24000001px;font-family:OCRA;text-anchor:start;fill:#ffffff;stroke:none;stroke-width:0">13</text>
    </g>
  </g>
  <g
     transform="translate(90.972,5.3244)"
     id="g7824"
     style="stroke-width:0">
    <g
       transform="rotate(-90)"
       id="g7822"
       style="stroke-width:0">
      <text
         x="0"
         y="0"
         font-size="3.24"
         id="text7820"
         style="font-size:3.24000001px;font-family:OCRA;text-anchor:end;fill:#ffffff;stroke:none;stroke-width:0">20</text>
    </g>
  </g>
  <g
     transform="translate(98.172,37.8756)"
     id="g7830"
     style="stroke-width:0">
    <g
       transform="rotate(-90)"
       id="g7828"
       style="stroke-width:0">
      <text
         x="0"
         y="0"
         font-size="3.24"
         id="text7826"
         style="font-size:3.24000001px;font-family:OCRA;text-anchor:start;fill:#ffffff;stroke:none;stroke-width:0">14</text>
    </g>
  </g>
  <g
     transform="translate(98.172,5.3244)"
     id="g7836"
     style="stroke-width:0">
    <g
       transform="rotate(-90)"
       id="g7834"
       style="stroke-width:0">
      <text
         x="0"
         y="0"
         font-size="3.24"
         id="text7832"
         style="font-size:3.24000001px;font-family:OCRA;text-anchor:end;fill:#ffffff;stroke:none;stroke-width:0">19</text>
    </g>
  </g>
  <g
     transform="translate(105.372,37.8756)"
     id="g7842"
     style="stroke-width:0">
    <g
       transform="rotate(-90)"
       id="g7840"
       style="stroke-width:0">
      <text
         x="0"
         y="0"
         font-size="3.24"
         id="text7838"
         style="font-size:3.24000001px;font-family:OCRA;text-anchor:start;fill:#ffffff;stroke:none;stroke-width:0">15</text>
    </g>
  </g>
  <g
     transform="translate(105.372,5.3244)"
     id="g7848"
     style="stroke-width:0">
    <g
       transform="rotate(-90)"
       id="g7846"
       style="stroke-width:0">
      <text
         x="0"
         y="0"
         font-size="3.24"
         id="text7844"
         style="font-size:3.24000001px;font-family:OCRA;text-anchor:end;fill:#ffffff;stroke:none;stroke-width:0">18</text>
    </g>
  </g>
  <g
     transform="translate(112.572,37.8756)"
     id="g7854"
     style="stroke-width:0">
    <g
       transform="rotate(-90)"
       id="g7852"
       style="stroke-width:0">
      <text
         x="0"
         y="0"
         font-size="3.24"
         id="text7850"
         style="font-size:3.24000001px;font-family:OCRA;text-anchor:start;fill:#ffffff;stroke:none;stroke-width:0">16</text>
    </g>
  </g>
  <g
     transform="translate(112.572,5.3244)"
     id="g7860"
     style="stroke-width:0">
    <g
       transform="rotate(-90)"
       id="g7858"
       style="stroke-width:0">
      <text
         x="0"
         y="0"
         font-size="3.24"
         id="text7856"
         style="font-size:3.24000001px;font-family:OCRA;text-anchor:end;fill:#ffffff;stroke:none;stroke-width:0">17</text>
    </g>
  </g>
  <g
     style="stroke-width:0"
     transform="translate(-80.243835,81.619093)"
     id="connector0pin">
    <rect
       style="fill:#8d8c8c;stroke-width:0"
       id="rect7863"
       height="2.2967999"
       y="0"
       x="0"
       width="2.29896" />
    <rect
       style="fill:#8c8663;stroke-width:0"
       id="rect7865"
       height="1.18189"
       y="0.556952"
       x="0.56098998"
       width="1.18398" />
    <polygon
       style="fill:#b8af82;stroke-width:0"
       id="polygon7867"
       points="0,0 0,2.2968 0.56099,1.73785 0.56099,0.501957 " />
    <polygon
       style="fill:#80795b;stroke-width:0"
       id="polygon7869"
       points="2.29896,0 1.74297,0.558951 0.56899,0.558951 0,0 " />
    <polygon
       style="fill:#5e5b43;stroke-width:0"
       id="polygon7871"
       points="2.29896,2.2968 1.74297,1.73785 1.74297,0.558951 2.29896,0 " />
    <polygon
       style="fill:#9a916c;stroke-width:0"
       id="polygon7873"
       points="2.29896,2.2968 0,2.2968 0.56699,1.73785 1.74297,1.73785 " />
  </g>
  <g
     style="stroke-width:0"
     transform="translate(2.45052,2.4516)"
     id="connector31pin">
    <rect
       style="fill:#8d8c8c;stroke-width:0"
       id="rect7876"
       height="2.2967999"
       y="0"
       x="0"
       width="2.29896" />
    <rect
       style="fill:#8c8663;stroke-width:0"
       id="rect7878"
       height="1.18189"
       y="0.556952"
       x="0.56098998"
       width="1.18398" />
    <polygon
       style="fill:#b8af82;stroke-width:0"
       id="polygon7880"
       points="0.56099,0.501957 0,0 0,2.2968 0.56099,1.73785 " />
    <polygon
       style="fill:#80795b;stroke-width:0"
       id="polygon7882"
       points="0,0 2.29896,0 1.74297,0.558951 0.56899,0.558951 " />
    <polygon
       style="fill:#5e5b43;stroke-width:0"
       id="polygon7884"
       points="2.29896,0 2.29896,2.2968 1.74297,1.73785 1.74297,0.558951 " />
    <polygon
       style="fill:#9a916c;stroke-width:0"
       id="polygon7886"
       points="1.74297,1.73785 2.29896,2.2968 0,2.2968 0.56699,1.73785 " />
  </g>
  <g
     style="stroke-width:0"
     transform="translate(-73.043835,81.619093)"
     id="connector1pin">
    <rect
       style="fill:#8d8c8c;stroke-width:0"
       id="rect7889"
       height="2.2967999"
       y="0"
       x="0"
       width="2.29896" />
    <rect
       style="fill:#8c8663;stroke-width:0"
       id="rect7891"
       height="1.18189"
       y="0.556952"
       x="0.56098998"
       width="1.18398" />
    <polygon
       style="fill:#b8af82;stroke-width:0"
       id="polygon7893"
       points="0,0 0,2.2968 0.56099,1.73785 0.56099,0.501957 " />
    <polygon
       style="fill:#80795b;stroke-width:0"
       id="polygon7895"
       points="2.29896,0 1.74297,0.558951 0.56899,0.558951 0,0 " />
    <polygon
       style="fill:#5e5b43;stroke-width:0"
       id="polygon7897"
       points="2.29896,2.2968 1.74297,1.73785 1.74297,0.558951 2.29896,0 " />
    <polygon
       style="fill:#9a916c;stroke-width:0"
       id="polygon7899"
       points="2.29896,2.2968 0,2.2968 0.56699,1.73785 1.74297,1.73785 " />
  </g>
  <g
     style="stroke-width:0"
     transform="translate(9.65052,2.4516)"
     id="connector30pin">
    <rect
       style="fill:#8d8c8c;stroke-width:0"
       id="rect7902"
       height="2.2967999"
       y="0"
       x="0"
       width="2.29896" />
    <rect
       style="fill:#8c8663;stroke-width:0"
       id="rect7904"
       height="1.18189"
       y="0.556952"
       x="0.56098998"
       width="1.18398" />
    <polygon
       style="fill:#b8af82;stroke-width:0"
       id="polygon7906"
       points="0.56099,0.501957 0,0 0,2.2968 0.56099,1.73785 " />
    <polygon
       style="fill:#80795b;stroke-width:0"
       id="polygon7908"
       points="0,0 2.29896,0 1.74297,0.558951 0.56899,0.558951 " />
    <polygon
       style="fill:#5e5b43;stroke-width:0"
       id="polygon7910"
       points="2.29896,0 2.29896,2.2968 1.74297,1.73785 1.74297,0.558951 " />
    <polygon
       style="fill:#9a916c;stroke-width:0"
       id="polygon7912"
       points="1.74297,1.73785 2.29896,2.2968 0,2.2968 0.56699,1.73785 " />
  </g>
  <g
     style="stroke-width:0"
     transform="translate(-65.843855,81.619093)"
     id="connector2pin">
    <rect
       style="fill:#8d8c8c;stroke-width:0"
       id="rect7915"
       height="2.2967999"
       y="0"
       x="0"
       width="2.29896" />
    <rect
       style="fill:#8c8663;stroke-width:0"
       id="rect7917"
       height="1.18189"
       y="0.556952"
       x="0.56098998"
       width="1.18398" />
    <polygon
       style="fill:#b8af82;stroke-width:0"
       id="polygon7919"
       points="0,0 0,2.2968 0.56099,1.73785 0.56099,0.501957 " />
    <polygon
       style="fill:#80795b;stroke-width:0"
       id="polygon7921"
       points="2.29896,0 1.74297,0.558951 0.56899,0.558951 0,0 " />
    <polygon
       style="fill:#5e5b43;stroke-width:0"
       id="polygon7923"
       points="2.29896,2.2968 1.74297,1.73785 1.74297,0.558951 2.29896,0 " />
    <polygon
       style="fill:#9a916c;stroke-width:0"
       id="polygon7925"
       points="2.29896,2.2968 0,2.2968 0.56699,1.73785 1.74297,1.73785 " />
  </g>
  <g
     style="stroke-width:0"
     transform="translate(16.8505,2.4516)"
     id="connector29pin">
    <rect
       style="fill:#8d8c8c;stroke-width:0"
       id="rect7928"
       height="2.2967999"
       y="0"
       x="0"
       width="2.29896" />
    <rect
       style="fill:#8c8663;stroke-width:0"
       id="rect7930"
       height="1.18189"
       y="0.556952"
       x="0.56098998"
       width="1.18398" />
    <polygon
       style="fill:#b8af82;stroke-width:0"
       id="polygon7932"
       points="0.56099,0.501957 0,0 0,2.2968 0.56099,1.73785 " />
    <polygon
       style="fill:#80795b;stroke-width:0"
       id="polygon7934"
       points="0,0 2.29896,0 1.74297,0.558951 0.56899,0.558951 " />
    <polygon
       style="fill:#5e5b43;stroke-width:0"
       id="polygon7936"
       points="2.29896,0 2.29896,2.2968 1.74297,1.73785 1.74297,0.558951 " />
    <polygon
       style="fill:#9a916c;stroke-width:0"
       id="polygon7938"
       points="1.74297,1.73785 2.29896,2.2968 0,2.2968 0.56699,1.73785 " />
  </g>
  <g
     style="stroke-width:0"
     transform="translate(-58.643855,81.619093)"
     id="connector3pin">
    <rect
       style="fill:#8d8c8c;stroke-width:0"
       id="rect7941"
       height="2.2967999"
       y="0"
       x="0"
       width="2.29896" />
    <rect
       style="fill:#8c8663;stroke-width:0"
       id="rect7943"
       height="1.18189"
       y="0.556952"
       x="0.56098998"
       width="1.18398" />
    <polygon
       style="fill:#b8af82;stroke-width:0"
       id="polygon7945"
       points="0,0 0,2.2968 0.56099,1.73785 0.56099,0.501957 " />
    <polygon
       style="fill:#80795b;stroke-width:0"
       id="polygon7947"
       points="2.29896,0 1.74297,0.558951 0.56899,0.558951 0,0 " />
    <polygon
       style="fill:#5e5b43;stroke-width:0"
       id="polygon7949"
       points="2.29896,2.2968 1.74297,1.73785 1.74297,0.558951 2.29896,0 " />
    <polygon
       style="fill:#9a916c;stroke-width:0"
       id="polygon7951"
       points="2.29896,2.2968 0,2.2968 0.56699,1.73785 1.74297,1.73785 " />
  </g>
  <g
     style="stroke-width:0"
     transform="translate(24.0505,2.4516)"
     id="connector28pin">
    <rect
       style="fill:#8d8c8c;stroke-width:0"
       id="rect7954"
       height="2.2967999"
       y="0"
       x="0"
       width="2.29896" />
    <rect
       style="fill:#8c8663;stroke-width:0"
       id="rect7956"
       height="1.18189"
       y="0.556952"
       x="0.56098998"
       width="1.18398" />
    <polygon
       style="fill:#b8af82;stroke-width:0"
       id="polygon7958"
       points="0.56099,0.501957 0,0 0,2.2968 0.56099,1.73785 " />
    <polygon
       style="fill:#80795b;stroke-width:0"
       id="polygon7960"
       points="0,0 2.29896,0 1.74297,0.558951 0.56899,0.558951 " />
    <polygon
       style="fill:#5e5b43;stroke-width:0"
       id="polygon7962"
       points="2.29896,0 2.29896,2.2968 1.74297,1.73785 1.74297,0.558951 " />
    <polygon
       style="fill:#9a916c;stroke-width:0"
       id="polygon7964"
       points="1.74297,1.73785 2.29896,2.2968 0,2.2968 0.56699,1.73785 " />
  </g>
  <g
     style="stroke-width:0"
     transform="translate(-51.443855,81.619093)"
     id="connector4pin">
    <rect
       style="fill:#8d8c8c;stroke-width:0"
       id="rect7967"
       height="2.2967999"
       y="0"
       x="0"
       width="2.29896" />
    <rect
       style="fill:#8c8663;stroke-width:0"
       id="rect7969"
       height="1.18189"
       y="0.556952"
       x="0.56098998"
       width="1.18398" />
    <polygon
       style="fill:#b8af82;stroke-width:0"
       id="polygon7971"
       points="0,0 0,2.2968 0.56099,1.73785 0.56099,0.501957 " />
    <polygon
       style="fill:#80795b;stroke-width:0"
       id="polygon7973"
       points="2.29896,0 1.74297,0.558951 0.56899,0.558951 0,0 " />
    <polygon
       style="fill:#5e5b43;stroke-width:0"
       id="polygon7975"
       points="2.29896,2.2968 1.74297,1.73785 1.74297,0.558951 2.29896,0 " />
    <polygon
       style="fill:#9a916c;stroke-width:0"
       id="polygon7977"
       points="2.29896,2.2968 0,2.2968 0.56699,1.73785 1.74297,1.73785 " />
  </g>
  <g
     style="stroke-width:0"
     transform="translate(31.2505,2.4516)"
     id="connector27pin">
    <rect
       style="fill:#8d8c8c;stroke-width:0"
       id="rect7980"
       height="2.2967999"
       y="0"
       x="0"
       width="2.29896" />
    <rect
       style="fill:#8c8663;stroke-width:0"
       id="rect7982"
       height="1.18189"
       y="0.556952"
       x="0.56098998"
       width="1.18398" />
    <polygon
       style="fill:#b8af82;stroke-width:0"
       id="polygon7984"
       points="0.56099,0.501957 0,0 0,2.2968 0.56099,1.73785 " />
    <polygon
       style="fill:#80795b;stroke-width:0"
       id="polygon7986"
       points="0,0 2.29896,0 1.74297,0.558951 0.56899,0.558951 " />
    <polygon
       style="fill:#5e5b43;stroke-width:0"
       id="polygon7988"
       points="2.29896,0 2.29896,2.2968 1.74297,1.73785 1.74297,0.558951 " />
    <polygon
       style="fill:#9a916c;stroke-width:0"
       id="polygon7990"
       points="1.74297,1.73785 2.29896,2.2968 0,2.2968 0.56699,1.73785 " />
  </g>
  <g
     style="stroke-width:0"
     transform="translate(-44.243855,81.619093)"
     id="connector5pin">
    <rect
       style="fill:#8d8c8c;stroke-width:0"
       id="rect7993"
       height="2.2967999"
       y="0"
       x="0"
       width="2.29896" />
    <rect
       style="fill:#8c8663;stroke-width:0"
       id="rect7995"
       height="1.18189"
       y="0.556952"
       x="0.56098998"
       width="1.18398" />
    <polygon
       style="fill:#b8af82;stroke-width:0"
       id="polygon7997"
       points="0,0 0,2.2968 0.56099,1.73785 0.56099,0.501957 " />
    <polygon
       style="fill:#80795b;stroke-width:0"
       id="polygon7999"
       points="2.29896,0 1.74297,0.558951 0.56899,0.558951 0,0 " />
    <polygon
       style="fill:#5e5b43;stroke-width:0"
       id="polygon8001"
       points="2.29896,2.2968 1.74297,1.73785 1.74297,0.558951 2.29896,0 " />
    <polygon
       style="fill:#9a916c;stroke-width:0"
       id="polygon8003"
       points="2.29896,2.2968 0,2.2968 0.56699,1.73785 1.74297,1.73785 " />
  </g>
  <g
     style="stroke-width:0"
     transform="translate(38.4505,2.4516)"
     id="connector26pin">
    <rect
       style="fill:#8d8c8c;stroke-width:0"
       id="rect8006"
       height="2.2967999"
       y="0"
       x="0"
       width="2.29896" />
    <rect
       style="fill:#8c8663;stroke-width:0"
       id="rect8008"
       height="1.18189"
       y="0.556952"
       x="0.56098998"
       width="1.18398" />
    <polygon
       style="fill:#b8af82;stroke-width:0"
       id="polygon8010"
       points="0.56099,0.501957 0,0 0,2.2968 0.56099,1.73785 " />
    <polygon
       style="fill:#80795b;stroke-width:0"
       id="polygon8012"
       points="0,0 2.29896,0 1.74297,0.558951 0.56899,0.558951 " />
    <polygon
       style="fill:#5e5b43;stroke-width:0"
       id="polygon8014"
       points="2.29896,0 2.29896,2.2968 1.74297,1.73785 1.74297,0.558951 " />
    <polygon
       style="fill:#9a916c;stroke-width:0"
       id="polygon8016"
       points="1.74297,1.73785 2.29896,2.2968 0,2.2968 0.56699,1.73785 " />
  </g>
  <g
     style="stroke-width:0"
     transform="translate(45.6505,38.4516)"
     id="connector6pin">
    <rect
       style="fill:#8d8c8c;stroke-width:0"
       id="rect8019"
       height="2.2967999"
       y="0"
       x="0"
       width="2.29896" />
    <rect
       style="fill:#8c8663;stroke-width:0"
       id="rect8021"
       height="1.18189"
       y="0.556952"
       x="0.56098998"
       width="1.18398" />
    <polygon
       style="fill:#b8af82;stroke-width:0"
       id="polygon8023"
       points="0.56099,0.501957 0,0 0,2.2968 0.56099,1.73785 " />
    <polygon
       style="fill:#80795b;stroke-width:0"
       id="polygon8025"
       points="0,0 2.29896,0 1.74297,0.558951 0.56899,0.558951 " />
    <polygon
       style="fill:#5e5b43;stroke-width:0"
       id="polygon8027"
       points="2.29896,0 2.29896,2.2968 1.74297,1.73785 1.74297,0.558951 " />
    <polygon
       style="fill:#9a916c;stroke-width:0"
       id="polygon8029"
       points="1.74297,1.73785 2.29896,2.2968 0,2.2968 0.56699,1.73785 " />
  </g>
  <g
     style="stroke-width:0"
     transform="translate(45.6505,2.4516)"
     id="connector25pin">
    <rect
       style="fill:#8d8c8c;stroke-width:0"
       id="rect8032"
       height="2.2967999"
       y="0"
       x="0"
       width="2.29896" />
    <rect
       style="fill:#8c8663;stroke-width:0"
       id="rect8034"
       height="1.18189"
       y="0.556952"
       x="0.56098998"
       width="1.18398" />
    <polygon
       style="fill:#b8af82;stroke-width:0"
       id="polygon8036"
       points="0.56099,0.501957 0,0 0,2.2968 0.56099,1.73785 " />
    <polygon
       style="fill:#80795b;stroke-width:0"
       id="polygon8038"
       points="0,0 2.29896,0 1.74297,0.558951 0.56899,0.558951 " />
    <polygon
       style="fill:#5e5b43;stroke-width:0"
       id="polygon8040"
       points="2.29896,0 2.29896,2.2968 1.74297,1.73785 1.74297,0.558951 " />
    <polygon
       style="fill:#9a916c;stroke-width:0"
       id="polygon8042"
       points="1.74297,1.73785 2.29896,2.2968 0,2.2968 0.56699,1.73785 " />
  </g>
  <g
     style="stroke-width:0"
     transform="translate(52.8505,38.4516)"
     id="connector7pin">
    <rect
       style="fill:#8d8c8c;stroke-width:0"
       id="rect8045"
       height="2.2967999"
       y="0"
       x="0"
       width="2.29896" />
    <rect
       style="fill:#8c8663;stroke-width:0"
       id="rect8047"
       height="1.18189"
       y="0.556952"
       x="0.56098998"
       width="1.18398" />
    <polygon
       style="fill:#b8af82;stroke-width:0"
       id="polygon8049"
       points="0.56099,0.501957 0,0 0,2.2968 0.56099,1.73785 " />
    <polygon
       style="fill:#80795b;stroke-width:0"
       id="polygon8051"
       points="0,0 2.29896,0 1.74297,0.558951 0.56899,0.558951 " />
    <polygon
       style="fill:#5e5b43;stroke-width:0"
       id="polygon8053"
       points="2.29896,0 2.29896,2.2968 1.74297,1.73785 1.74297,0.558951 " />
    <polygon
       style="fill:#9a916c;stroke-width:0"
       id="polygon8055"
       points="1.74297,1.73785 2.29896,2.2968 0,2.2968 0.56699,1.73785 " />
  </g>
  <g
     style="stroke-width:0"
     transform="translate(52.8505,2.4516)"
     id="connector24pin">
    <rect
       style="fill:#8d8c8c;stroke-width:0"
       id="rect8058"
       height="2.2967999"
       y="0"
       x="0"
       width="2.29896" />
    <rect
       style="fill:#8c8663;stroke-width:0"
       id="rect8060"
       height="1.18189"
       y="0.556952"
       x="0.56098998"
       width="1.18398" />
    <polygon
       style="fill:#b8af82;stroke-width:0"
       id="polygon8062"
       points="0.56099,0.501957 0,0 0,2.2968 0.56099,1.73785 " />
    <polygon
       style="fill:#80795b;stroke-width:0"
       id="polygon8064"
       points="0,0 2.29896,0 1.74297,0.558951 0.56899,0.558951 " />
    <polygon
       style="fill:#5e5b43;stroke-width:0"
       id="polygon8066"
       points="2.29896,0 2.29896,2.2968 1.74297,1.73785 1.74297,0.558951 " />
    <polygon
       style="fill:#9a916c;stroke-width:0"
       id="polygon8068"
       points="1.74297,1.73785 2.29896,2.2968 0,2.2968 0.56699,1.73785 " />
  </g>
  <g
     style="stroke-width:0"
     transform="translate(60.0505,38.4516)"
     id="connector8pin">
    <rect
       style="fill:#8d8c8c;stroke-width:0"
       id="rect8071"
       height="2.2967999"
       y="0"
       x="0"
       width="2.29896" />
    <rect
       style="fill:#8c8663;stroke-width:0"
       id="rect8073"
       height="1.18189"
       y="0.556952"
       x="0.56098998"
       width="1.18398" />
    <polygon
       style="fill:#b8af82;stroke-width:0"
       id="polygon8075"
       points="0.56099,0.501957 0,0 0,2.2968 0.56099,1.73785 " />
    <polygon
       style="fill:#80795b;stroke-width:0"
       id="polygon8077"
       points="0,0 2.29896,0 1.74297,0.558951 0.56899,0.558951 " />
    <polygon
       style="fill:#5e5b43;stroke-width:0"
       id="polygon8079"
       points="2.29896,0 2.29896,2.2968 1.74297,1.73785 1.74297,0.558951 " />
    <polygon
       style="fill:#9a916c;stroke-width:0"
       id="polygon8081"
       points="1.74297,1.73785 2.29896,2.2968 0,2.2968 0.56699,1.73785 " />
  </g>
  <g
     style="stroke-width:0"
     transform="translate(60.0505,2.4516)"
     id="connector23pin">
    <rect
       style="fill:#8d8c8c;stroke-width:0"
       id="rect8084"
       height="2.2967999"
       y="0"
       x="0"
       width="2.29896" />
    <rect
       style="fill:#8c8663;stroke-width:0"
       id="rect8086"
       height="1.18189"
       y="0.556952"
       x="0.56098998"
       width="1.18398" />
    <polygon
       style="fill:#b8af82;stroke-width:0"
       id="polygon8088"
       points="0.56099,0.501957 0,0 0,2.2968 0.56099,1.73785 " />
    <polygon
       style="fill:#80795b;stroke-width:0"
       id="polygon8090"
       points="0,0 2.29896,0 1.74297,0.558951 0.56899,0.558951 " />
    <polygon
       style="fill:#5e5b43;stroke-width:0"
       id="polygon8092"
       points="2.29896,0 2.29896,2.2968 1.74297,1.73785 1.74297,0.558951 " />
    <polygon
       style="fill:#9a916c;stroke-width:0"
       id="polygon8094"
       points="1.74297,1.73785 2.29896,2.2968 0,2.2968 0.56699,1.73785 " />
  </g>
  <g
     style="stroke-width:0"
     transform="translate(67.2505,38.4516)"
     id="connector9pin">
    <rect
       style="fill:#8d8c8c;stroke-width:0"
       id="rect8097"
       height="2.2967999"
       y="0"
       x="0"
       width="2.29896" />
    <rect
       style="fill:#8c8663;stroke-width:0"
       id="rect8099"
       height="1.18189"
       y="0.556952"
       x="0.56098998"
       width="1.18398" />
    <polygon
       style="fill:#b8af82;stroke-width:0"
       id="polygon8101"
       points="0.56099,0.501957 0,0 0,2.2968 0.56099,1.73785 " />
    <polygon
       style="fill:#80795b;stroke-width:0"
       id="polygon8103"
       points="0,0 2.29896,0 1.74297,0.558951 0.56899,0.558951 " />
    <polygon
       style="fill:#5e5b43;stroke-width:0"
       id="polygon8105"
       points="2.29896,0 2.29896,2.2968 1.74297,1.73785 1.74297,0.558951 " />
    <polygon
       style="fill:#9a916c;stroke-width:0"
       id="polygon8107"
       points="1.74297,1.73785 2.29896,2.2968 0,2.2968 0.56699,1.73785 " />
  </g>
  <g
     style="stroke-width:0"
     transform="translate(67.2505,2.4516)"
     id="connector22pin">
    <rect
       style="fill:#8d8c8c;stroke-width:0"
       id="rect8110"
       height="2.2967999"
       y="0"
       x="0"
       width="2.29896" />
    <rect
       style="fill:#8c8663;stroke-width:0"
       id="rect8112"
       height="1.18189"
       y="0.556952"
       x="0.56098998"
       width="1.18398" />
    <polygon
       style="fill:#b8af82;stroke-width:0"
       id="polygon8114"
       points="0.56099,0.501957 0,0 0,2.2968 0.56099,1.73785 " />
    <polygon
       style="fill:#80795b;stroke-width:0"
       id="polygon8116"
       points="0,0 2.29896,0 1.74297,0.558951 0.56899,0.558951 " />
    <polygon
       style="fill:#5e5b43;stroke-width:0"
       id="polygon8118"
       points="2.29896,0 2.29896,2.2968 1.74297,1.73785 1.74297,0.558951 " />
    <polygon
       style="fill:#9a916c;stroke-width:0"
       id="polygon8120"
       points="1.74297,1.73785 2.29896,2.2968 0,2.2968 0.56699,1.73785 " />
  </g>
  <g
     style="stroke-width:0"
     transform="translate(74.4509,38.4516)"
     id="connector10pin">
    <rect
       style="fill:#8d8c8c;stroke-width:0"
       id="rect8123"
       height="2.2967999"
       y="0"
       x="0"
       width="2.29896" />
    <rect
       style="fill:#8c8663;stroke-width:0"
       id="rect8125"
       height="1.18189"
       y="0.556952"
       x="0.56098998"
       width="1.18398" />
    <polygon
       style="fill:#b8af82;stroke-width:0"
       id="polygon8127"
       points="0.56099,0.501957 0,0 0,2.2968 0.56099,1.73785 " />
    <polygon
       style="fill:#80795b;stroke-width:0"
       id="polygon8129"
       points="0,0 2.29896,0 1.74297,0.558951 0.56899,0.558951 " />
    <polygon
       style="fill:#5e5b43;stroke-width:0"
       id="polygon8131"
       points="2.29896,0 2.29896,2.2968 1.74297,1.73785 1.74297,0.558951 " />
    <polygon
       style="fill:#9a916c;stroke-width:0"
       id="polygon8133"
       points="1.74297,1.73785 2.29896,2.2968 0,2.2968 0.56699,1.73785 " />
  </g>
  <g
     style="stroke-width:0"
     transform="translate(74.4509,2.4516)"
     id="connector21pin">
    <rect
       style="fill:#8d8c8c;stroke-width:0"
       id="rect8136"
       height="2.2967999"
       y="0"
       x="0"
       width="2.29896" />
    <rect
       style="fill:#8c8663;stroke-width:0"
       id="rect8138"
       height="1.18189"
       y="0.556952"
       x="0.56098998"
       width="1.18398" />
    <polygon
       style="fill:#b8af82;stroke-width:0"
       id="polygon8140"
       points="0.56099,0.501957 0,0 0,2.2968 0.56099,1.73785 " />
    <polygon
       style="fill:#80795b;stroke-width:0"
       id="polygon8142"
       points="0,0 2.29896,0 1.74297,0.558951 0.56899,0.558951 " />
    <polygon
       style="fill:#5e5b43;stroke-width:0"
       id="polygon8144"
       points="2.29896,0 2.29896,2.2968 1.74297,1.73785 1.74297,0.558951 " />
    <polygon
       style="fill:#9a916c;stroke-width:0"
       id="polygon8146"
       points="1.74297,1.73785 2.29896,2.2968 0,2.2968 0.56699,1.73785 " />
  </g>
  <g
     style="stroke-width:0"
     transform="translate(81.6509,38.4516)"
     id="connector11pin">
    <rect
       style="fill:#8d8c8c;stroke-width:0"
       id="rect8149"
       height="2.2967999"
       y="0"
       x="0"
       width="2.29896" />
    <rect
       style="fill:#8c8663;stroke-width:0"
       id="rect8151"
       height="1.18189"
       y="0.556952"
       x="0.56098998"
       width="1.18398" />
    <polygon
       style="fill:#b8af82;stroke-width:0"
       id="polygon8153"
       points="0.56099,0.501957 0,0 0,2.2968 0.56099,1.73785 " />
    <polygon
       style="fill:#80795b;stroke-width:0"
       id="polygon8155"
       points="0,0 2.29896,0 1.74297,0.558951 0.56899,0.558951 " />
    <polygon
       style="fill:#5e5b43;stroke-width:0"
       id="polygon8157"
       points="2.29896,0 2.29896,2.2968 1.74297,1.73785 1.74297,0.558951 " />
    <polygon
       style="fill:#9a916c;stroke-width:0"
       id="polygon8159"
       points="1.74297,1.73785 2.29896,2.2968 0,2.2968 0.56699,1.73785 " />
  </g>
  <g
     style="stroke-width:0"
     transform="translate(81.6509,2.4516)"
     id="connector20pin">
    <rect
       style="fill:#8d8c8c;stroke-width:0"
       id="rect8162"
       height="2.2967999"
       y="0"
       x="0"
       width="2.29896" />
    <rect
       style="fill:#8c8663;stroke-width:0"
       id="rect8164"
       height="1.18189"
       y="0.556952"
       x="0.56098998"
       width="1.18398" />
    <polygon
       style="fill:#b8af82;stroke-width:0"
       id="polygon8166"
       points="0.56099,0.501957 0,0 0,2.2968 0.56099,1.73785 " />
    <polygon
       style="fill:#80795b;stroke-width:0"
       id="polygon8168"
       points="0,0 2.29896,0 1.74297,0.558951 0.56899,0.558951 " />
    <polygon
       style="fill:#5e5b43;stroke-width:0"
       id="polygon8170"
       points="2.29896,0 2.29896,2.2968 1.74297,1.73785 1.74297,0.558951 " />
    <polygon
       style="fill:#9a916c;stroke-width:0"
       id="polygon8172"
       points="1.74297,1.73785 2.29896,2.2968 0,2.2968 0.56699,1.73785 " />
  </g>
  <g
     style="stroke-width:0"
     transform="translate(88.8509,38.4516)"
     id="connector12pin">
    <rect
       style="fill:#8d8c8c;stroke-width:0"
       id="rect8175"
       height="2.2967999"
       y="0"
       x="0"
       width="2.29896" />
    <rect
       style="fill:#8c8663;stroke-width:0"
       id="rect8177"
       height="1.18189"
       y="0.556952"
       x="0.56098998"
       width="1.18398" />
    <polygon
       style="fill:#b8af82;stroke-width:0"
       id="polygon8179"
       points="0.56099,0.501957 0,0 0,2.2968 0.56099,1.73785 " />
    <polygon
       style="fill:#80795b;stroke-width:0"
       id="polygon8181"
       points="0,0 2.29896,0 1.74297,0.558951 0.56899,0.558951 " />
    <polygon
       style="fill:#5e5b43;stroke-width:0"
       id="polygon8183"
       points="2.29896,0 2.29896,2.2968 1.74297,1.73785 1.74297,0.558951 " />
    <polygon
       style="fill:#9a916c;stroke-width:0"
       id="polygon8185"
       points="1.74297,1.73785 2.29896,2.2968 0,2.2968 0.56699,1.73785 " />
  </g>
  <g
     style="stroke-width:0"
     transform="translate(88.8509,2.4516)"
     id="connector19pin">
    <rect
       style="fill:#8d8c8c;stroke-width:0"
       id="rect8188"
       height="2.2967999"
       y="0"
       x="0"
       width="2.29896" />
    <rect
       style="fill:#8c8663;stroke-width:0"
       id="rect8190"
       height="1.18189"
       y="0.556952"
       x="0.56098998"
       width="1.18398" />
    <polygon
       style="fill:#b8af82;stroke-width:0"
       id="polygon8192"
       points="0.56099,0.501957 0,0 0,2.2968 0.56099,1.73785 " />
    <polygon
       style="fill:#80795b;stroke-width:0"
       id="polygon8194"
       points="0,0 2.29896,0 1.74297,0.558951 0.56899,0.558951 " />
    <polygon
       style="fill:#5e5b43;stroke-width:0"
       id="polygon8196"
       points="2.29896,0 2.29896,2.2968 1.74297,1.73785 1.74297,0.558951 " />
    <polygon
       style="fill:#9a916c;stroke-width:0"
       id="polygon8198"
       points="1.74297,1.73785 2.29896,2.2968 0,2.2968 0.56699,1.73785 " />
  </g>
  <g
     style="stroke-width:0"
     transform="translate(96.0509,38.4516)"
     id="connector13pin">
    <rect
       style="fill:#8d8c8c;stroke-width:0"
       id="rect8201"
       height="2.2967999"
       y="0"
       x="0"
       width="2.29896" />
    <rect
       style="fill:#8c8663;stroke-width:0"
       id="rect8203"
       height="1.18189"
       y="0.556952"
       x="0.56098998"
       width="1.18398" />
    <polygon
       style="fill:#b8af82;stroke-width:0"
       id="polygon8205"
       points="0.56099,0.501957 0,0 0,2.2968 0.56099,1.73785 " />
    <polygon
       style="fill:#80795b;stroke-width:0"
       id="polygon8207"
       points="0,0 2.29896,0 1.74297,0.558951 0.56899,0.558951 " />
    <polygon
       style="fill:#5e5b43;stroke-width:0"
       id="polygon8209"
       points="2.29896,0 2.29896,2.2968 1.74297,1.73785 1.74297,0.558951 " />
    <polygon
       style="fill:#9a916c;stroke-width:0"
       id="polygon8211"
       points="1.74297,1.73785 2.29896,2.2968 0,2.2968 0.56699,1.73785 " />
  </g>
  <g
     style="stroke-width:0"
     transform="translate(96.0509,2.4516)"
     id="connector18pin">
    <rect
       style="fill:#8d8c8c;stroke-width:0"
       id="rect8214"
       height="2.2967999"
       y="0"
       x="0"
       width="2.29896" />
    <rect
       style="fill:#8c8663;stroke-width:0"
       id="rect8216"
       height="1.18189"
       y="0.556952"
       x="0.56098998"
       width="1.18398" />
    <polygon
       style="fill:#b8af82;stroke-width:0"
       id="polygon8218"
       points="0.56099,0.501957 0,0 0,2.2968 0.56099,1.73785 " />
    <polygon
       style="fill:#80795b;stroke-width:0"
       id="polygon8220"
       points="0,0 2.29896,0 1.74297,0.558951 0.56899,0.558951 " />
    <polygon
       style="fill:#5e5b43;stroke-width:0"
       id="polygon8222"
       points="2.29896,0 2.29896,2.2968 1.74297,1.73785 1.74297,0.558951 " />
    <polygon
       style="fill:#9a916c;stroke-width:0"
       id="polygon8224"
       points="1.74297,1.73785 2.29896,2.2968 0,2.2968 0.56699,1.73785 " />
  </g>
  <g
     style="stroke-width:0"
     transform="translate(103.251,38.4516)"
     id="connector14pin">
    <rect
       style="fill:#8d8c8c;stroke-width:0"
       id="rect8227"
       height="2.2967999"
       y="0"
       x="0"
       width="2.29896" />
    <rect
       style="fill:#8c8663;stroke-width:0"
       id="rect8229"
       height="1.18189"
       y="0.556952"
       x="0.56098998"
       width="1.18398" />
    <polygon
       style="fill:#b8af82;stroke-width:0"
       id="polygon8231"
       points="0.56099,0.501957 0,0 0,2.2968 0.56099,1.73785 " />
    <polygon
       style="fill:#80795b;stroke-width:0"
       id="polygon8233"
       points="0,0 2.29896,0 1.74297,0.558951 0.56899,0.558951 " />
    <polygon
       style="fill:#5e5b43;stroke-width:0"
       id="polygon8235"
       points="2.29896,0 2.29896,2.2968 1.74297,1.73785 1.74297,0.558951 " />
    <polygon
       style="fill:#9a916c;stroke-width:0"
       id="polygon8237"
       points="1.74297,1.73785 2.29896,2.2968 0,2.2968 0.56699,1.73785 " />
  </g>
  <g
     style="stroke-width:0"
     transform="translate(103.251,2.4516)"
     id="connector17pin">
    <rect
       style="fill:#8d8c8c;stroke-width:0"
       id="rect8240"
       height="2.2967999"
       y="0"
       x="0"
       width="2.29896" />
    <rect
       style="fill:#8c8663;stroke-width:0"
       id="rect8242"
       height="1.18189"
       y="0.556952"
       x="0.56098998"
       width="1.18398" />
    <polygon
       style="fill:#b8af82;stroke-width:0"
       id="polygon8244"
       points="0.56099,0.501957 0,0 0,2.2968 0.56099,1.73785 " />
    <polygon
       style="fill:#80795b;stroke-width:0"
       id="polygon8246"
       points="0,0 2.29896,0 1.74297,0.558951 0.56899,0.558951 " />
    <polygon
       style="fill:#5e5b43;stroke-width:0"
       id="polygon8248"
       points="2.29896,0 2.29896,2.2968 1.74297,1.73785 1.74297,0.558951 " />
    <polygon
       style="fill:#9a916c;stroke-width:0"
       id="polygon8250"
       points="1.74297,1.73785 2.29896,2.2968 0,2.2968 0.56699,1.73785 " />
  </g>
  <g
     style="stroke-width:0"
     transform="translate(110.451,38.4516)"
     id="connector15pin">
    <rect
       style="fill:#8d8c8c;stroke-width:0"
       id="rect8253"
       height="2.2967999"
       y="0"
       x="0"
       width="2.29896" />
    <rect
       style="fill:#8c8663;stroke-width:0"
       id="rect8255"
       height="1.18189"
       y="0.556952"
       x="0.56098998"
       width="1.18398" />
    <polygon
       style="fill:#b8af82;stroke-width:0"
       id="polygon8257"
       points="0.56099,0.501957 0,0 0,2.2968 0.56099,1.73785 " />
    <polygon
       style="fill:#80795b;stroke-width:0"
       id="polygon8259"
       points="0,0 2.29896,0 1.74297,0.558951 0.56899,0.558951 " />
    <polygon
       style="fill:#5e5b43;stroke-width:0"
       id="polygon8261"
       points="2.29896,0 2.29896,2.2968 1.74297,1.73785 1.74297,0.558951 " />
    <polygon
       style="fill:#9a916c;stroke-width:0"
       id="polygon8263"
       points="1.74297,1.73785 2.29896,2.2968 0,2.2968 0.56699,1.73785 " />
  </g>
  <g
     style="stroke-width:0"
     transform="translate(110.451,2.4516)"
     id="connector16pin">
    <rect
       style="fill:#8d8c8c;stroke-width:0"
       id="rect8266"
       height="2.2967999"
       y="0"
       x="0"
       width="2.29896" />
    <rect
       style="fill:#8c8663;stroke-width:0"
       id="rect8268"
       height="1.18189"
       y="0.556952"
       x="0.56098998"
       width="1.18398" />
    <polygon
       style="fill:#b8af82;stroke-width:0"
       id="polygon8270"
       points="0.56099,0.501957 0,0 0,2.2968 0.56099,1.73785 " />
    <polygon
       style="fill:#80795b;stroke-width:0"
       id="polygon8272"
       points="0,0 2.29896,0 1.74297,0.558951 0.56899,0.558951 " />
    <polygon
       style="fill:#5e5b43;stroke-width:0"
       id="polygon8274"
       points="2.29896,0 2.29896,2.2968 1.74297,1.73785 1.74297,0.558951 " />
    <polygon
       style="fill:#9a916c;stroke-width:0"
       id="polygon8276"
       points="1.74297,1.73785 2.29896,2.2968 0,2.2968 0.56699,1.73785 " />
  </g>
  <text
     x="-82.087936"
     y="29.239149"
     id="label"
     font-size="4.68"
     style="font-style:normal;font-variant:normal;font-weight:normal;font-stretch:normal;font-size:4.67999983px;font-family:OCRA;-inkscape-font-specification:'OCRA, Normal';font-variant-ligatures:normal;font-variant-caps:normal;font-variant-numeric:normal;font-feature-settings:normal;text-align:start;writing-mode:lr-tb;text-anchor:start;fill:#e6e6e6;fill-opacity:1;stroke:none;stroke-width:0">
    <tspan
       sodipodi:role="line"
       id="tspan8789"
       x="-82.087936"
       y="29.239149">L298N</tspan>
  </text>
  <rect
     style="fill:#000000;fill-opacity:1;stroke:#f90000;stroke-width:0.07270363;stroke-miterlimit:4;stroke-dasharray:none;stroke-dashoffset:0;stroke-opacity:1"
     id="rect8793"
     width="65.199142"
     height="45.281624"
     x="-105.54809"
     y="-28.178894" />
  <g
     id="g8819"
     transform="rotate(-90,-13.611471,102.03919)">
    <rect
       y="83.653534"
       x="14.342615"
       height="17.007874"
       width="28.346455"
       id="rect8797"
       style="fill:#006fff;fill-opacity:1;stroke:#f90000;stroke-width:0.075;stroke-miterlimit:4;stroke-dasharray:none;stroke-dashoffset:0;stroke-opacity:1" />
    <circle
       r="4.9647517"
       cy="91.560356"
       cx="21.513922"
       id="path8799"
       style="fill:#e6e6e6;fill-opacity:1;stroke:#f90000;stroke-width:0.075;stroke-miterlimit:4;stroke-dasharray:none;stroke-dashoffset:0;stroke-opacity:1" />
    <circle
       inkscape:transform-center-y="-0.73551875"
       inkscape:transform-center-x="11.7683"
       r="4.9647517"
       cy="91.63652"
       cx="34.699406"
       id="path8799-0"
       style="fill:#e6e6e6;fill-opacity:1;stroke:#f90000;stroke-width:0.075;stroke-miterlimit:4;stroke-dasharray:none;stroke-dashoffset:0;stroke-opacity:1" />
  </g>
  <g
     id="g8819-4"
     transform="rotate(-90,-62.749932,150.58857)">
    <rect
       y="83.653534"
       x="14.342615"
       height="17.007874"
       width="28.346455"
       id="rect8797-1"
       style="fill:#006fff;fill-opacity:1;stroke:#f90000;stroke-width:0.075;stroke-miterlimit:4;stroke-dasharray:none;stroke-dashoffset:0;stroke-opacity:1" />
    <circle
       r="4.9647517"
       cy="91.560356"
       cx="21.513922"
       id="path8799-7"
       style="fill:#e6e6e6;fill-opacity:1;stroke:#f90000;stroke-width:0.075;stroke-miterlimit:4;stroke-dasharray:none;stroke-dashoffset:0;stroke-opacity:1" />
    <circle
       inkscape:transform-center-y="-0.73551875"
       inkscape:transform-center-x="11.7683"
       r="4.9647517"
       cy="91.63652"
       cx="34.699406"
       id="path8799-0-1"
       style="fill:#e6e6e6;fill-opacity:1;stroke:#f90000;stroke-width:0.075;stroke-miterlimit:4;stroke-dasharray:none;stroke-dashoffset:0;stroke-opacity:1" />
  </g>
  <g
     style="stroke-width:0"
     id="connector5pin-0"
     transform="translate(-44.361205,76.80486)">
    <rect
       style="fill:#8d8c8c;stroke-width:0"
       id="rect7993-6"
       height="2.2967999"
       y="0"
       x="0"
       width="2.29896" />
    <rect
       style="fill:#8c8663;stroke-width:0"
       id="rect7995-6"
       height="1.18189"
       y="0.556952"
       x="0.56098998"
       width="1.18398" />
    <polygon
       style="fill:#b8af82;stroke-width:0"
       id="polygon7997-4"
       points="0,2.2968 0.56099,1.73785 0.56099,0.501957 0,0 " />
    <polygon
       style="fill:#80795b;stroke-width:0"
       id="polygon7999-1"
       points="1.74297,0.558951 0.56899,0.558951 0,0 2.29896,0 " />
    <polygon
       style="fill:#5e5b43;stroke-width:0"
       id="polygon8001-9"
       points="1.74297,1.73785 1.74297,0.558951 2.29896,0 2.29896,2.2968 " />
    <polygon
       style="fill:#9a916c;stroke-width:0"
       id="polygon8003-3"
       points="0,2.2968 0.56699,1.73785 1.74297,1.73785 2.29896,2.2968 " />
  </g>
  <g
     style="stroke-width:0"
     id="connector0pin-4"
     transform="translate(-80.401623,76.253221)">
    <rect
       style="fill:#8d8c8c;stroke-width:0"
       id="rect7863-3"
       height="2.2967999"
       y="0"
       x="0"
       width="2.29896" />
    <rect
       style="fill:#8c8663;stroke-width:0"
       id="rect7865-0"
       height="1.18189"
       y="0.556952"
       x="0.56098998"
       width="1.18398" />
    <polygon
       style="fill:#b8af82;stroke-width:0"
       id="polygon7867-2"
       points="0,2.2968 0.56099,1.73785 0.56099,0.501957 0,0 " />
    <polygon
       style="fill:#80795b;stroke-width:0"
       id="polygon7869-3"
       points="1.74297,0.558951 0.56899,0.558951 0,0 2.29896,0 " />
    <polygon
       style="fill:#5e5b43;stroke-width:0"
       id="polygon7871-8"
       points="1.74297,1.73785 1.74297,0.558951 2.29896,0 2.29896,2.2968 " />
    <polygon
       style="fill:#9a916c;stroke-width:0"
       id="polygon7873-1"
       points="0,2.2968 0.56699,1.73785 1.74297,1.73785 2.29896,2.2968 " />
  </g>
  <circle
     style="fill:#e6e6e6;fill-opacity:1;stroke:#f90000;stroke-width:0.05461763;stroke-miterlimit:4;stroke-dasharray:none;stroke-dashoffset:0;stroke-opacity:1"
     id="path8911"
     cx="23.932024"
     cy="80.316025"
     r="3.3476911" />
  <circle
     style="fill:#000000;fill-opacity:1;stroke:#f90000;stroke-width:0.05461763;stroke-miterlimit:4;stroke-dasharray:none;stroke-dashoffset:0;stroke-opacity:1"
     id="path8911-4"
     cx="24.639879"
     cy="88.526337"
     r="3.3476911" />
</svg>
