<?xml version="1.0" encoding="UTF-8" standalone="no"?>
<!-- Created with Fritzing (http://www.fritzing.org/) -->

<svg
   xmlns:dc="http://purl.org/dc/elements/1.1/"
   xmlns:cc="http://creativecommons.org/ns#"
   xmlns:rdf="http://www.w3.org/1999/02/22-rdf-syntax-ns#"
   xmlns:svg="http://www.w3.org/2000/svg"
   xmlns="http://www.w3.org/2000/svg"
   xmlns:sodipodi="http://sodipodi.sourceforge.net/DTD/sodipodi-0.dtd"
   xmlns:inkscape="http://www.inkscape.org/namespaces/inkscape"
   width="12mm"
   x="0in"
   version="1.2"
   y="0in"
   height="30mm"
   viewBox="0 0 34.015749 85.039366"
   id="svg1510"
   sodipodi:docname="modulo_ir_breadboard.svg"
   inkscape:version="0.92.2 (5c3e80d, 2017-08-06)">
  <metadata
     id="metadata1516">
    <rdf:RDF>
      <cc:Work
         rdf:about="">
        <dc:format>image/svg+xml</dc:format>
        <dc:type
           rdf:resource="http://purl.org/dc/dcmitype/StillImage" />
        <dc:title></dc:title>
      </cc:Work>
    </rdf:RDF>
  </metadata>
  <defs
     id="defs1514" />
  <sodipodi:namedview
     pagecolor="#ffffff"
     bordercolor="#666666"
     borderopacity="1"
     objecttolerance="10"
     gridtolerance="10"
     guidetolerance="10"
     inkscape:pageopacity="0"
     inkscape:pageshadow="2"
     inkscape:window-width="1366"
     inkscape:window-height="715"
     id="namedview1512"
     showgrid="false"
     units="mm"
     inkscape:zoom="8.0838508"
     inkscape:cx="15.875959"
     inkscape:cy="-0.56822455"
     inkscape:window-x="-8"
     inkscape:window-y="-8"
     inkscape:window-maximized="1"
     inkscape:current-layer="svg1510" />
  <desc
     id="desc815">Fritzing breadboard generated by brd2svg</desc>
  <path
     d="m 0,17.007874 v 30.614171 a 0.63779531,3.401575 0 0 1 0,6.80315 V 85.039367 H 34.015747 V 17.007874 Z"
     id="path817"
     inkscape:connector-curvature="0"
     style="fill:#1f7a34;stroke:none;stroke-width:0"
     inkscape:export-xdpi="96"
     inkscape:export-ydpi="96" />
  <text
     x="3.8624144"
     y="41.577053"
     id="label"
     font-size="4.68"
     style="font-style:normal;font-variant:normal;font-weight:normal;font-stretch:normal;font-size:4.67999983px;font-family:OCRA;-inkscape-font-specification:'OCRA, Normal';font-variant-ligatures:normal;font-variant-caps:normal;font-variant-numeric:normal;font-feature-settings:normal;text-align:start;writing-mode:lr-tb;text-anchor:start;fill:#ffffff;stroke:none;stroke-width:0"
     inkscape:export-xdpi="96"
     inkscape:export-ydpi="96">
    <tspan
       sodipodi:role="line"
       id="tspan2021"
       x="3.8624144"
       y="41.577053">MÓDULO IR</tspan>
  </text>
  <text
     x="-77.615646"
     y="10.082706"
     font-size="3.24"
     id="text900"
     style="font-style:normal;font-variant:normal;font-weight:normal;font-stretch:normal;font-size:3.23999977px;font-family:OCRA;-inkscape-font-specification:'OCRA, Normal';font-variant-ligatures:normal;font-variant-caps:normal;font-variant-numeric:normal;font-feature-settings:normal;text-align:start;writing-mode:lr-tb;text-anchor:start;fill:#ffffff;stroke:none;stroke-width:0"
     transform="rotate(-90)"
     inkscape:export-xdpi="96"
     inkscape:export-ydpi="96">
    <tspan
       sodipodi:role="line"
       id="tspan2339"
       x="-77.615646"
       y="10.082706">GND</tspan>
  </text>
  <text
     x="-77.615646"
     y="17.282705"
     font-size="3.24"
     id="text912"
     style="font-style:normal;font-variant:normal;font-weight:normal;font-stretch:normal;font-size:3.23999977px;font-family:OCRA;-inkscape-font-specification:'OCRA, Normal';font-variant-ligatures:normal;font-variant-caps:normal;font-variant-numeric:normal;font-feature-settings:normal;text-align:start;writing-mode:lr-tb;text-anchor:start;fill:#ffffff;stroke:none;stroke-width:0"
     transform="rotate(-90)"
     inkscape:export-xdpi="96"
     inkscape:export-ydpi="96">
    <tspan
       sodipodi:role="line"
       id="tspan2342"
       x="-77.615646"
       y="17.282705">VCC</tspan>
  </text>
  <text
     x="-77.615646"
     y="24.482706"
     font-size="3.24"
     id="text924"
     style="font-style:normal;font-variant:normal;font-weight:normal;font-stretch:normal;font-size:3.23999977px;font-family:OCRA;-inkscape-font-specification:'OCRA, Normal';font-variant-ligatures:normal;font-variant-caps:normal;font-variant-numeric:normal;font-feature-settings:normal;text-align:start;writing-mode:lr-tb;text-anchor:start;fill:#ffffff;stroke:none;stroke-width:0"
     transform="rotate(-90)"
     inkscape:export-xdpi="96"
     inkscape:export-ydpi="96">
    <tspan
       sodipodi:role="line"
       id="tspan2345"
       x="-77.615646"
       y="24.482706">Signal</tspan>
  </text>
  <g
     style="stroke-width:0"
     transform="translate(7.961226,78.191649)"
     id="connector0pin"
     inkscape:export-xdpi="96"
     inkscape:export-ydpi="96">
    <rect
       style="fill:#8d8c8c;stroke-width:0"
       id="rect1093"
       height="2.2967999"
       y="0"
       x="0"
       width="2.29896" />
    <rect
       style="fill:#8c8663;stroke-width:0"
       id="rect1095"
       height="1.18189"
       y="0.556952"
       x="0.56098998"
       width="1.18398" />
    <polygon
       style="fill:#b8af82;stroke-width:0"
       id="polygon1097"
       points="0,2.2968 0.56099,1.73785 0.56099,0.501957 0,0 " />
    <polygon
       style="fill:#80795b;stroke-width:0"
       id="polygon1099"
       points="1.74297,0.558951 0.56899,0.558951 0,0 2.29896,0 " />
    <polygon
       style="fill:#5e5b43;stroke-width:0"
       id="polygon1101"
       points="1.74297,1.73785 1.74297,0.558951 2.29896,0 2.29896,2.2968 " />
    <polygon
       style="fill:#9a916c;stroke-width:0"
       id="polygon1103"
       points="0,2.2968 0.56699,1.73785 1.74297,1.73785 2.29896,2.2968 " />
  </g>
  <g
     style="stroke-width:0"
     transform="translate(15.161226,78.191649)"
     id="connector1pin"
     inkscape:export-xdpi="96"
     inkscape:export-ydpi="96">
    <rect
       style="fill:#8d8c8c;stroke-width:0"
       id="rect1119"
       height="2.2967999"
       y="0"
       x="0"
       width="2.29896" />
    <rect
       style="fill:#8c8663;stroke-width:0"
       id="rect1121"
       height="1.18189"
       y="0.556952"
       x="0.56098998"
       width="1.18398" />
    <polygon
       style="fill:#b8af82;stroke-width:0"
       id="polygon1123"
       points="0,2.2968 0.56099,1.73785 0.56099,0.501957 0,0 " />
    <polygon
       style="fill:#80795b;stroke-width:0"
       id="polygon1125"
       points="1.74297,0.558951 0.56899,0.558951 0,0 2.29896,0 " />
    <polygon
       style="fill:#5e5b43;stroke-width:0"
       id="polygon1127"
       points="1.74297,1.73785 1.74297,0.558951 2.29896,0 2.29896,2.2968 " />
    <polygon
       style="fill:#9a916c;stroke-width:0"
       id="polygon1129"
       points="0,2.2968 0.56699,1.73785 1.74297,1.73785 2.29896,2.2968 " />
  </g>
  <g
     style="stroke-width:0"
     transform="translate(22.361206,78.191649)"
     id="connector2pin"
     inkscape:export-xdpi="96"
     inkscape:export-ydpi="96">
    <rect
       style="fill:#8d8c8c;stroke-width:0"
       id="rect1145"
       height="2.2967999"
       y="0"
       x="0"
       width="2.29896" />
    <rect
       style="fill:#8c8663;stroke-width:0"
       id="rect1147"
       height="1.18189"
       y="0.556952"
       x="0.56098998"
       width="1.18398" />
    <polygon
       style="fill:#b8af82;stroke-width:0"
       id="polygon1149"
       points="0.56099,0.501957 0,0 0,2.2968 0.56099,1.73785 " />
    <polygon
       style="fill:#80795b;stroke-width:0"
       id="polygon1151"
       points="0,0 2.29896,0 1.74297,0.558951 0.56899,0.558951 " />
    <polygon
       style="fill:#5e5b43;stroke-width:0"
       id="polygon1153"
       points="2.29896,0 2.29896,2.2968 1.74297,1.73785 1.74297,0.558951 " />
    <polygon
       style="fill:#9a916c;stroke-width:0"
       id="polygon1155"
       points="1.74297,1.73785 2.29896,2.2968 0,2.2968 0.56699,1.73785 " />
  </g>
  <g
     id="icon"
     transform="matrix(0.44016236,0,0,0.44016236,2.4395729,1.827595)"
     inkscape:export-xdpi="96"
     inkscape:export-ydpi="96">
    <rect
       id="rect2150"
       height="43.049999"
       width="2.6889999"
       y="24.962"
       x="11.387"
       style="fill:#8c8c8c" />
    <path
       id="path2152"
       d="m 23.079,37.246 c 0,-1.467 -1.331,-2.629 -2.61,-3.74 -0.52,-0.458 -1.5,-1.251 -1.5,-1.779 v -6.84 h -2.701 v 7.225 c 0,1.323 1.186,2.348 2.434,3.434 0.555,0.471 1.686,1.563 1.686,2.213 0,0.262 0.003,30.256 0.003,30.256 h 2.691 z"
       inkscape:connector-curvature="0"
       style="fill:#8c8c8c" />
    <g
       id="g12">
      <path
         d="m 24.791,16.988 v -7.39 c 0,-4.891 -3.96,-8.86 -8.857,-8.86 -4.892,0 -8.861,3.962 -8.861,8.86 V 26.66 c 1.842,2.063 5.121,3.44 8.86,3.44 5.774,0 10.46,-3.271 10.46,-7.324 v -1.904 c 0,-1.429 -0.592,-2.755 -1.602,-3.884 z"
         id="path14"
         inkscape:connector-curvature="0"
         style="opacity:0.3;fill:#cccccc" />
      <path
         d="m 24.791,16.988 v -7.39 c 0,-4.891 -3.96,-8.86 -8.857,-8.86 -4.892,0 -8.861,3.962 -8.861,8.86 V 26.66 c 1.842,2.063 5.121,3.44 8.86,3.44 5.774,0 10.46,-3.271 10.46,-7.324 v -1.904 c 0,-1.429 -0.592,-2.755 -1.602,-3.884 z"
         id="path16"
         inkscape:connector-curvature="0"
         style="opacity:0.5;fill:#e6e6e6" />
      <path
         d="m 24.791,16.988 v 3.883 c 0,3.423 -3.957,6.205 -8.857,6.205 -4.892,0 -8.861,-2.773 -8.861,-6.205 v 3.881 1.905 c 1.842,2.064 5.121,3.44 8.86,3.44 5.774,0 10.46,-3.272 10.46,-7.322 v -1.904 c 0,-1.428 -0.592,-2.754 -1.602,-3.883 z"
         id="path18"
         inkscape:connector-curvature="0"
         style="opacity:0.9;fill:#d1d1d1" />
      <path
         d="m 24.791,16.988 v 3.883 c 0,3.423 -3.957,6.205 -8.857,6.205 -4.892,0 -8.861,-2.773 -8.861,-6.205 v 3.881 1.905 c 1.842,2.064 5.121,3.44 8.86,3.44 5.774,0 10.46,-3.272 10.46,-7.322 v -1.904 c 0,-1.428 -0.592,-2.754 -1.602,-3.883 z"
         id="path20"
         inkscape:connector-curvature="0"
         style="opacity:0.7;fill:#e6e6e6" />
      <path
         d="m 24.791,16.988 v 3.883 c 0,3.423 -3.957,6.205 -8.857,6.205 -4.892,0 -8.861,-2.773 -8.861,-6.205 v 3.881 c 1.842,2.062 5.121,3.439 8.86,3.439 5.774,0 10.46,-3.271 10.46,-7.322 0,-1.426 -0.592,-2.752 -1.602,-3.881 z"
         id="path22"
         inkscape:connector-curvature="0"
         style="opacity:0.25;fill:#e6e6e6" />
      <ellipse
         ry="6.2010002"
         rx="8.8590002"
         cy="20.871"
         cx="15.933"
         id="ellipse24"
         style="opacity:0.25;fill:#e6e6e6" />
      <ellipse
         ry="6.2010002"
         rx="8.8590002"
         cy="20.871"
         cx="15.933"
         id="ellipse26"
         style="opacity:0.25;fill:#e6e6e6" />
      <polygon
         points="11.068,20.871 11.068,17.105 14.593,17.105 19.589,11.744 11.332,11.744 9.828,12.797 9.828,20.871 "
         id="polygon28"
         style="fill:#666666" />
      <polygon
         points="16.338,17.105 20.898,17.105 20.898,20.871 22.041,20.871 22.041,11.393 20.547,11.393 21.092,12.03 "
         id="polygon30"
         style="fill:#666666" />
      <path
         d="m 24.791,16.988 v -7.39 c 0,-4.891 -3.96,-8.86 -8.857,-8.86 -4.892,0 -8.861,3.962 -8.861,8.86 V 26.66 c 1.842,2.063 5.121,3.44 8.86,3.44 5.774,0 10.46,-3.271 10.46,-7.324 v -1.904 c 0,-1.429 -0.592,-2.755 -1.602,-3.884 z"
         id="path32"
         inkscape:connector-curvature="0"
         style="opacity:0.65;fill:#ececec" />
      <path
         d="M 20.059,5.43 21.854,5.088 C 20.802,3.673 19.252,2.641 17.427,2.29 l 0.318,1.351 c 0.954,0.338 1.758,0.976 2.314,1.789 z"
         id="path34"
         inkscape:connector-curvature="0"
         style="opacity:0.5;fill:#ffffff" />
      <path
         d="m 8.034,25.645 v 1.9 c 0.811,0.662 1.792,1.221 2.885,1.646 V 27.285 C 9.82,26.865 8.848,26.308 8.034,25.645 Z"
         id="path36"
         inkscape:connector-curvature="0"
         style="opacity:0.5;fill:#ffffff" />
      <path
         d="m 20.914,25.999 c -0.319,0.153 -0.662,0.288 -1.007,0.413 -0.072,0.024 -0.146,0.05 -0.222,0.072 -0.705,0.225 -1.451,0.398 -2.244,0.494 -0.094,0.011 -0.188,0.022 -0.281,0.023 -0.399,0.037 -0.804,0.072 -1.213,0.072 -0.186,0 -0.384,-0.02 -0.589,-0.029 -1.5,-0.07 -2.914,-0.395 -4.122,-0.924 V 15.634 9.603 c 0,-1.839 1.061,-3.412 2.592,-4.187 L 13.8,5.349 12.24,3.459 C 10.153,4.713 8.752,6.987 8.752,9.599 V 24.48 C 8.69,24.418 8.367,24.093 8.152,23.817 l -0.385,0.86 c 1.751,1.854 4.761,3.077 8.178,3.077 2.1,0 4.047,-0.468 5.64,-1.253 l -0.659,-0.512 c -0.012,0.01 -0.012,0.01 -0.012,0.01 z"
         id="path38"
         inkscape:connector-curvature="0"
         style="opacity:0.5;fill:#ffffff" />
    </g>
  </g>
  <g
     transform="matrix(0.44016236,0,0,0.44016236,16.732707,0.68857421)"
     id="g2225"
     inkscape:export-xdpi="96"
     inkscape:export-ydpi="96">
    <rect
       style="fill:#8c8c8c"
       x="11.387"
       y="24.962"
       width="2.6889999"
       height="43.049999"
       id="rect2193" />
    <path
       style="fill:#8c8c8c"
       inkscape:connector-curvature="0"
       d="m 23.079,37.246 c 0,-1.467 -1.331,-2.629 -2.61,-3.74 -0.52,-0.458 -1.5,-1.251 -1.5,-1.779 v -6.84 h -2.701 v 7.225 c 0,1.323 1.186,2.348 2.434,3.434 0.555,0.471 1.686,1.563 1.686,2.213 0,0.262 0.003,30.256 0.003,30.256 h 2.691 z"
       id="path2195" />
    <g
       id="g2223">
      <path
         style="opacity:0.3;fill:#cccccc"
         inkscape:connector-curvature="0"
         id="path2197"
         d="m 24.791,16.988 v -7.39 c 0,-4.891 -3.96,-8.86 -8.857,-8.86 -4.892,0 -8.861,3.962 -8.861,8.86 V 26.66 c 1.842,2.063 5.121,3.44 8.86,3.44 5.774,0 10.46,-3.271 10.46,-7.324 v -1.904 c 0,-1.429 -0.592,-2.755 -1.602,-3.884 z" />
      <path
         style="opacity:0.5;fill:#e6e6e6"
         inkscape:connector-curvature="0"
         id="path2199"
         d="m 24.791,16.988 v -7.39 c 0,-4.891 -3.96,-8.86 -8.857,-8.86 -4.892,0 -8.861,3.962 -8.861,8.86 V 26.66 c 1.842,2.063 5.121,3.44 8.86,3.44 5.774,0 10.46,-3.271 10.46,-7.324 v -1.904 c 0,-1.429 -0.592,-2.755 -1.602,-3.884 z" />
      <path
         style="opacity:0.9;fill:#d1d1d1"
         inkscape:connector-curvature="0"
         id="path2201"
         d="m 24.791,16.988 v 3.883 c 0,3.423 -3.957,6.205 -8.857,6.205 -4.892,0 -8.861,-2.773 -8.861,-6.205 v 3.881 1.905 c 1.842,2.064 5.121,3.44 8.86,3.44 5.774,0 10.46,-3.272 10.46,-7.322 v -1.904 c 0,-1.428 -0.592,-2.754 -1.602,-3.883 z" />
      <path
         style="opacity:0.7;fill:#e6e6e6"
         inkscape:connector-curvature="0"
         id="path2203"
         d="m 24.791,16.988 v 3.883 c 0,3.423 -3.957,6.205 -8.857,6.205 -4.892,0 -8.861,-2.773 -8.861,-6.205 v 3.881 1.905 c 1.842,2.064 5.121,3.44 8.86,3.44 5.774,0 10.46,-3.272 10.46,-7.322 v -1.904 c 0,-1.428 -0.592,-2.754 -1.602,-3.883 z" />
      <path
         style="opacity:0.25;fill:#e6e6e6"
         inkscape:connector-curvature="0"
         id="path2205"
         d="m 24.791,16.988 v 3.883 c 0,3.423 -3.957,6.205 -8.857,6.205 -4.892,0 -8.861,-2.773 -8.861,-6.205 v 3.881 c 1.842,2.062 5.121,3.439 8.86,3.439 5.774,0 10.46,-3.271 10.46,-7.322 0,-1.426 -0.592,-2.752 -1.602,-3.881 z" />
      <ellipse
         style="opacity:0.25;fill:#e6e6e6"
         id="ellipse2207"
         cx="15.933"
         cy="20.871"
         rx="8.8590002"
         ry="6.2010002" />
      <ellipse
         style="opacity:0.25;fill:#e6e6e6"
         id="ellipse2209"
         cx="15.933"
         cy="20.871"
         rx="8.8590002"
         ry="6.2010002" />
      <polygon
         style="fill:#666666"
         id="polygon2211"
         points="11.332,11.744 9.828,12.797 9.828,20.871 11.068,20.871 11.068,17.105 14.593,17.105 19.589,11.744 " />
      <polygon
         style="fill:#666666"
         id="polygon2213"
         points="22.041,11.393 20.547,11.393 21.092,12.03 16.338,17.105 20.898,17.105 20.898,20.871 22.041,20.871 " />
      <path
         style="opacity:0.65;fill:#ececec"
         inkscape:connector-curvature="0"
         id="path2215"
         d="m 24.791,16.988 v -7.39 c 0,-4.891 -3.96,-8.86 -8.857,-8.86 -4.892,0 -8.861,3.962 -8.861,8.86 V 26.66 c 1.842,2.063 5.121,3.44 8.86,3.44 5.774,0 10.46,-3.271 10.46,-7.324 v -1.904 c 0,-1.429 -0.592,-2.755 -1.602,-3.884 z" />
      <path
         style="opacity:0.5;fill:#ffffff"
         inkscape:connector-curvature="0"
         id="path2217"
         d="M 20.059,5.43 21.854,5.088 C 20.802,3.673 19.252,2.641 17.427,2.29 l 0.318,1.351 c 0.954,0.338 1.758,0.976 2.314,1.789 z" />
      <path
         style="opacity:0.5;fill:#ffffff"
         inkscape:connector-curvature="0"
         id="path2219"
         d="m 8.034,25.645 v 1.9 c 0.811,0.662 1.792,1.221 2.885,1.646 V 27.285 C 9.82,26.865 8.848,26.308 8.034,25.645 Z" />
      <path
         style="opacity:0.5;fill:#ffffff"
         inkscape:connector-curvature="0"
         id="path2221"
         d="m 20.914,25.999 c -0.319,0.153 -0.662,0.288 -1.007,0.413 -0.072,0.024 -0.146,0.05 -0.222,0.072 -0.705,0.225 -1.451,0.398 -2.244,0.494 -0.094,0.011 -0.188,0.022 -0.281,0.023 -0.399,0.037 -0.804,0.072 -1.213,0.072 -0.186,0 -0.384,-0.02 -0.589,-0.029 -1.5,-0.07 -2.914,-0.395 -4.122,-0.924 V 15.634 9.603 c 0,-1.839 1.061,-3.412 2.592,-4.187 L 13.8,5.349 12.24,3.459 C 10.153,4.713 8.752,6.987 8.752,9.599 V 24.48 C 8.69,24.418 8.367,24.093 8.152,23.817 l -0.385,0.86 c 1.751,1.854 4.761,3.077 8.178,3.077 2.1,0 4.047,-0.468 5.64,-1.253 l -0.659,-0.512 c -0.012,0.01 -0.012,0.01 -0.012,0.01 z" />
    </g>
  </g>
  <g
     id="breadboard"
     transform="matrix(0.54167179,0,0,0.54167179,5.8799484,46.102632)"
     inkscape:export-xdpi="96"
     inkscape:export-ydpi="96">
    <rect
       height="2.9100001"
       width="6.5"
       y="3.5899999"
       x="0"
       id="connector0pin-2"
       style="fill:none" />
    <rect
       height="2.9100001"
       width="6.5"
       y="3.5899999"
       x="36.417"
       id="connector1pin-6"
       style="fill:none" />
    <rect
       height="2.9100001"
       width="0"
       y="3.5899999"
       x="1.485"
       id="connector0terminal"
       style="fill:none" />
    <rect
       height="2.9100001"
       width="0"
       y="3.5899999"
       x="41.485001"
       id="connector1terminal"
       style="fill:none" />
    <rect
       id="rect2231"
       height="2.9100001"
       width="42.917"
       y="3.5899999"
       x="0"
       style="fill:#8c8c8c" />
    <path
       d="m 14.233,0.688 c -0.5,-0.23 -1.36,-0.41 -1.91,-0.41 h -2.76 c -0.55,0 -1,0.45 -1,1 v 7.439 c 0,0.551 0.45,1 1,1 h 2.76 c 0.55,0 1.41,-0.189 1.91,-0.41 l 0.1,-0.049 c 0.5,-0.23 1.36,-0.41 1.91,-0.41 h 9.98 c 0.551,0 1.409,0.189 1.909,0.41 l 0.101,0.049 c 0.5,0.23 1.358,0.41 1.91,0.41 h 2.76 c 0.552,0 1,-0.449 1,-1 V 1.278 c 0,-0.55 -0.448,-1 -1,-1 h -2.76 c -0.552,0 -1.41,0.19 -1.91,0.41 l -0.101,0.05 c -0.5,0.23 -1.358,0.41 -1.909,0.41 h -9.98 c -0.55,0 -1.41,-0.19 -1.91,-0.41 z"
       id="body"
       inkscape:connector-curvature="0"
       style="fill:#d9b477" />
    <rect
       height="9.4379997"
       width="0.97600001"
       y="0.26899999"
       x="30.582001"
       id="gold_band"
       style="fill:#ad9f4e" />
    <rect
       height="7.6900001"
       width="2.5699999"
       y="1.148"
       x="22.462"
       id="band_3_rd_multiplier"
       style="fill:#c40808" />
    <rect
       height="7.6900001"
       width="2.5699999"
       y="1.148"
       x="17.323"
       id="band_2_nd"
       style="fill:#000000" />
    <path
       d="m 14.762,0.888 c -0.16,-0.05 -0.31,-0.1 -0.43,-0.16 l -0.1,-0.05 c -0.5,-0.229 -1.36,-0.41 -1.91,-0.41 h -0.12 v 9.439 h 0.12 c 0.55,0 1.41,-0.189 1.91,-0.41 l 0.1,-0.049 c 0.12,-0.062 0.27,-0.111 0.43,-0.16 z"
       id="band_1_st"
       inkscape:connector-curvature="0"
       style="fill:#8a3d06" />
    <path
       d="m 32.932,5.68 v 0 c 0,0.527 -0.181,0.971 -0.41,0.971 h -2.67 c -0.528,0 -1.358,-0.078 -1.851,-0.17 L 27.9,6.459 C 27.421,6.369 26.582,6.289 26.048,6.289 H 16.4 c -0.53,0 -1.36,0.08 -1.85,0.17 L 14.45,6.48 C 13.97,6.571 13.14,6.65 12.6,6.65 H 12.16 10.77 10.34 C 9.81,6.65 9.37,7.058 9.37,7.546 V 7.889 8.11 8.35 c 0,0.5 0.44,0.896 0.97,0.896 h 2.25 c 0.53,0 1.36,-0.17 1.85,-0.371 l 0.1,-0.039 C 15.02,8.64 15.86,8.468 16.39,8.468 h 9.648 c 0.527,0 1.357,0.172 1.853,0.369 l 0.103,0.039 c 0.479,0.201 1.312,0.371 1.852,0.371 h 3.09 c 0.529,0 0.971,-0.41 0.971,-0.896 V 7.6 6.249 3.688 c -0.385,0.15 -0.975,0.57 -0.975,1.992 z"
       id="Shadow"
       inkscape:connector-curvature="0"
       style="opacity:0.3" />
    <rect
       height="4.3790002"
       width="0.97600001"
       y="4.8379998"
       x="30.582001"
       id="ShadowExtra"
       style="opacity:0.4" />
    <path
       d="m 27.432,1.508 c 0.319,0 0.682,-0.14 0.92,-0.24 0.28,-0.11 0.801,-0.2 1.342,-0.2 h 2.029 c 0.312,0 0.312,0.34 0.312,0.52 0,0.18 -0.021,0.53 -0.312,0.53 h -4.25 c -0.149,0 -0.32,-0.16 -0.32,-0.311 0.009,-0.119 0.109,-0.299 0.279,-0.299 z"
       id="ReflexRight"
       inkscape:connector-curvature="0"
       style="opacity:0.25;fill:#ffffff" />
    <circle
       r="0.60000002"
       cy="1.5779999"
       cx="9.7220001"
       id="ReflexLeft"
       style="opacity:0.35;fill:#ffffff" />
    <rect
       height="2.25"
       width="0.97600001"
       y="0.588"
       x="30.582001"
       id="Reflex_gold"
       style="opacity:0.5;fill:#ffff33" />
    <rect
       height="1.04"
       width="0.97600001"
       y="1.0880001"
       x="30.582001"
       id="Reflex_extra"
       style="opacity:0.5;fill:#ffffff" />
  </g>
  <g
     id="breadboard-5"
     transform="matrix(0.54167179,0,0,0.54167179,4.908654,56.356027)"
     inkscape:export-xdpi="96"
     inkscape:export-ydpi="96">
    <rect
       height="2.9100001"
       width="6.5"
       y="3.5899999"
       x="0"
       id="connector0pin-2-0"
       style="fill:none" />
    <rect
       height="2.9100001"
       width="6.5"
       y="3.5899999"
       x="36.417"
       id="connector1pin-6-2"
       style="fill:none" />
    <rect
       height="2.9100001"
       width="0"
       y="3.5899999"
       x="1.485"
       id="connector0terminal-8"
       style="fill:none" />
    <rect
       height="2.9100001"
       width="0"
       y="3.5899999"
       x="41.485001"
       id="connector1terminal-7"
       style="fill:none" />
    <rect
       id="rect2231-4"
       height="2.9100001"
       width="42.917"
       y="3.5899999"
       x="0"
       style="fill:#8c8c8c" />
    <path
       d="m 14.233,0.688 c -0.5,-0.23 -1.36,-0.41 -1.91,-0.41 h -2.76 c -0.55,0 -1,0.45 -1,1 v 7.439 c 0,0.551 0.45,1 1,1 h 2.76 c 0.55,0 1.41,-0.189 1.91,-0.41 l 0.1,-0.049 c 0.5,-0.23 1.36,-0.41 1.91,-0.41 h 9.98 c 0.551,0 1.409,0.189 1.909,0.41 l 0.101,0.049 c 0.5,0.23 1.358,0.41 1.91,0.41 h 2.76 c 0.552,0 1,-0.449 1,-1 V 1.278 c 0,-0.55 -0.448,-1 -1,-1 h -2.76 c -0.552,0 -1.41,0.19 -1.91,0.41 l -0.101,0.05 c -0.5,0.23 -1.358,0.41 -1.909,0.41 h -9.98 c -0.55,0 -1.41,-0.19 -1.91,-0.41 z"
       id="body-8"
       inkscape:connector-curvature="0"
       style="fill:#d9b477" />
    <rect
       height="9.4379997"
       width="0.97600001"
       y="0.26899999"
       x="30.582001"
       id="gold_band-7"
       style="fill:#ad9f4e" />
    <rect
       height="7.6900001"
       width="2.5699999"
       y="1.148"
       x="22.462"
       id="band_3_rd_multiplier-1"
       style="fill:#c40808" />
    <rect
       height="7.6900001"
       width="2.5699999"
       y="1.148"
       x="17.323"
       id="band_2_nd-6"
       style="fill:#000000" />
    <path
       d="m 14.762,0.888 c -0.16,-0.05 -0.31,-0.1 -0.43,-0.16 l -0.1,-0.05 c -0.5,-0.229 -1.36,-0.41 -1.91,-0.41 h -0.12 v 9.439 h 0.12 c 0.55,0 1.41,-0.189 1.91,-0.41 l 0.1,-0.049 c 0.12,-0.062 0.27,-0.111 0.43,-0.16 z"
       id="band_1_st-8"
       inkscape:connector-curvature="0"
       style="fill:#8a3d06" />
    <path
       d="m 32.932,5.68 v 0 c 0,0.527 -0.181,0.971 -0.41,0.971 h -2.67 c -0.528,0 -1.358,-0.078 -1.851,-0.17 L 27.9,6.459 C 27.421,6.369 26.582,6.289 26.048,6.289 H 16.4 c -0.53,0 -1.36,0.08 -1.85,0.17 L 14.45,6.48 C 13.97,6.571 13.14,6.65 12.6,6.65 H 12.16 10.77 10.34 C 9.81,6.65 9.37,7.058 9.37,7.546 V 7.889 8.11 8.35 c 0,0.5 0.44,0.896 0.97,0.896 h 2.25 c 0.53,0 1.36,-0.17 1.85,-0.371 l 0.1,-0.039 C 15.02,8.64 15.86,8.468 16.39,8.468 h 9.648 c 0.527,0 1.357,0.172 1.853,0.369 l 0.103,0.039 c 0.479,0.201 1.312,0.371 1.852,0.371 h 3.09 c 0.529,0 0.971,-0.41 0.971,-0.896 V 7.6 6.249 3.688 c -0.385,0.15 -0.975,0.57 -0.975,1.992 z"
       id="Shadow-9"
       inkscape:connector-curvature="0"
       style="opacity:0.3" />
    <rect
       height="4.3790002"
       width="0.97600001"
       y="4.8379998"
       x="30.582001"
       id="ShadowExtra-8"
       style="opacity:0.4" />
    <path
       d="m 27.432,1.508 c 0.319,0 0.682,-0.14 0.92,-0.24 0.28,-0.11 0.801,-0.2 1.342,-0.2 h 2.029 c 0.312,0 0.312,0.34 0.312,0.52 0,0.18 -0.021,0.53 -0.312,0.53 h -4.25 c -0.149,0 -0.32,-0.16 -0.32,-0.311 0.009,-0.119 0.109,-0.299 0.279,-0.299 z"
       id="ReflexRight-1"
       inkscape:connector-curvature="0"
       style="opacity:0.25;fill:#ffffff" />
    <circle
       r="0.60000002"
       cy="1.5779999"
       cx="9.7220001"
       id="ReflexLeft-0"
       style="opacity:0.35;fill:#ffffff" />
    <rect
       height="2.25"
       width="0.97600001"
       y="0.588"
       x="30.582001"
       id="Reflex_gold-3"
       style="opacity:0.5;fill:#ffff33" />
    <rect
       height="1.04"
       width="0.97600001"
       y="1.0880001"
       x="30.582001"
       id="Reflex_extra-1"
       style="opacity:0.5;fill:#ffffff" />
  </g>
</svg>
